[
  {
    "fullname": "Claudia Farias",
    "username": "claudia",
    "role": "Gamer",
    "access_level": "Técnico",
    "last_access": "12/05/2018"
  },
  {
    "fullname": "Bernardo Farias",
    "username": "astronauta",
    "role": "Gamer",
    "access_level": "Usuário",
    "last_access": "21/06/2018"
  },
  {
    "fullname": "Sherlock Holmes",
    "username": "holmes",
    "role": "Surfist",
    "access_level": "Administrativo",
    "last_access": "21/06/2018"
  },
  {
    "fullname": "Elliot Alderson",
    "username": "r0b0t",
    "role": "Hacker",
    "access_level": "Super Usuário",
    "last_access": "25/12/1975"
  },
  {
    "fullname": "Arthur P. Dent",
    "username": "dent",
    "role": "Sandwich Maker",
    "access_level": "Visitante",
    "last_access": "21/06/2018"
  },
  {
    "fullname": "Neymar Jr",
    "username": "ney",
    "role": "Mestre de Obra",
    "access_level": "Visitante",
    "last_access": "22/06/2018"
  },
  {
    "fullname": "Hilda Hilst",
    "username": "hilda",
    "role": "Writer",
    "access_level": "Visitante",
    "last_access": "18/02/2019"
  }
]